…
10.1.2. Aggregated binomial: Chimpanzees again, condensed

d_aggregated <-
    d %>%
    select(-recipient, -block, -trial, -chose_prosoc) %>%
    group_by(actor, condition, prosoc_left) %>%
    summarise(x = sum(pulled_left))

d_aggregated %>%
    slice(1:8)

## # A tibble: 28 x 4
## # Groups:   actor, condition [14]
##    actor condition prosoc_left     x
##    <int>     <int>       <int> <int>
##  1     1         0           0     6
##  2     1         0           1     9
##  3     1         1           0     5
##  4     1         1           1    10
##  5     2         0           0    18
##  6     2         0           1    18
##  7     2         1           0    18
##  8     2         1           1    18
##  9     3         0           0     5
## 10     3         0           1    11
## # ... with 18 more rows
…
set.seed(3838) # making it reproducible 

num_weeks <- 4
y_new <- rpois(num_weeks, 0.5*7)

d <- 
  tibble(y = c(y, y_new), 
         days = c(rep(1, 30), rep(7, 4)),
         monastery = c(rep(0, 30), rep(1, 4)))

d

## # A tibble: 34 x 3
##        y  days monastery
##    <int> <dbl>     <dbl>
##  1     1    1.        0.
##  2     2    1.        0.
##  3     1    1.        0.
##  4     1    1.        0.
##  5     1    1.        0.
##  6     2    1.        0.
##  7     0    1.        0.
##  8     1    1.        0.
##  9     1    1.        0.
## 10     0    1.        0.
## # ... with 24 more rows
…
